%YAML 1.1
%TAG !u! tag:unity3d.com,2011:
--- !u!114 &11400000
MonoBehaviour:
  m_ObjectHideFlags: 0
  m_CorrespondingSourceObject: {fileID: 0}
  m_PrefabInstance: {fileID: 0}
  m_PrefabAsset: {fileID: 0}
  m_GameObject: {fileID: 0}
  m_Enabled: 1
  m_EditorHideFlags: 0
  m_Script: {fileID: 11500000, guid: e90911e410742a1498a167540c7865bf, type: 3}
  m_Name: Hoe_pose
  m_EditorClassIdentifier: 
  leftHand:
    inputSource: 1
    thumbFingerMovementType: 0
    indexFingerMovementType: 0
    middleFingerMovementType: 0
    ringFingerMovementType: 0
    pinkyFingerMovementType: 0
    ignoreRootPoseData: 1
    ignoreWristPoseData: 1
    position: {x: -0.027, y: -0.015425079, z: -0.11952775}
    rotation: {x: -0.44067848, y: 0, z: 0, w: -0.8976651}
    bonePositions:
    - {x: 0, y: 0.0028, z: 0.001225}
    - {x: 6.557457e-12, y: 0.0013175277, z: 4.7293723e-12}
    - {x: 0.00018424497, y: 0.00025110884, z: -0.00009327747}
    - {x: -8.381903e-11, y: 0.0003981605, z: 2.561137e-11}
    - {x: -9.313225e-11, y: 0.0003507384, z: -1.862645e-10}
    - {x: -0, y: 0.00036220855, z: 0}
    - {x: -1.2805685e-11, y: 0.00021575268, z: 6.984919e-12}
    - {x: 3.7252902e-11, y: 0.00067892484, z: 4.6566128e-12}
    - {x: 3.206878e-11, y: 0.00047745774, z: -9.677023e-12}
    - {x: -0, y: 0.00030565244, z: 1.3038516e-10}
    - {x: -0, y: 0.00022939466, z: 0}
    - {x: 0, y: 0.00021575268, z: 0}
    - {x: -9.3132255e-12, y: 0.0006706817, z: -8.1490726e-12}
    - {x: -2.561137e-11, y: 0.00052285154, z: -1.2805686e-10}
    - {x: 2.7939677e-11, y: 0.00034862317, z: 8.614734e-11}
    - {x: -0, y: 0.00024068115, z: 0}
    - {x: 0, y: 0.00021575268, z: 0}
    - {x: -3.1723176e-11, y: 0.0006529831, z: -1.7462297e-11}
    - {x: -2.7939677e-11, y: 0.00051837903, z: -5.122274e-11}
    - {x: -4.6566126e-11, y: 0.0002651808, z: -2.7939677e-11}
    - {x: -0, y: 0.0002389707, z: 0}
    - {x: -1.2805685e-11, y: 0.00021575268, z: 6.984919e-12}
    - {x: 7.4505804e-11, y: 0.0006685467, z: 2.3283063e-11}
    - {x: -3.7252902e-11, y: 0.00040428463, z: 3.7252902e-11}
    - {x: -5.5879353e-11, y: 0.00023437719, z: 8.381903e-11}
    - {x: -0, y: 0.00021018262, z: 0}
    - {x: -0.0060591106, y: 0.05628522, z: 0.060063843}
    - {x: -0.04041555, y: -0.043017667, z: 0.019344581}
    - {x: -0.03935372, y: -0.07567404, z: 0.047048334}
    - {x: -0.038340144, y: -0.09098663, z: 0.08257892}
    - {x: -0.031805996, y: -0.08721431, z: 0.12101539}
    boneRotations:
    - {x: 0.44279402, y: -0.17005871, z: 0.84015906, w: -0.26295683}
    - {x: -0.049506538, y: -0.10747276, z: 0.07969613, w: 0.9897713}
    - {x: -0.33459112, y: 0.39757225, z: -0.30360886, w: 0.7986281}
    - {x: 0.082900904, y: -0.031975314, z: 0.10876721, w: 0.9900883}
    - {x: 0.035276268, y: -0.013062671, z: 0.3210406, w: 0.9463181}
    - {x: 0, y: -0, z: -0, w: 1}
    - {x: 0.015559349, y: -0.038889375, z: -0.1770057, w: 0.98331815}
    - {x: -0.1352861, y: 0.005699418, z: 0.15248425, w: 0.9789861}
    - {x: -0.440609, y: -0.02518961, z: 0.018095277, w: 0.8971632}
    - {x: -0.469957, y: -0.011057445, z: 0.018292354, w: 0.8824305}
    - {x: 0, y: -0, z: -0, w: 1}
    - {x: 0.042028602, y: -0.0049513956, z: -0.019528488, w: 0.9989133}
    - {x: -0.26249397, y: -0.040271822, z: 0.02941536, w: 0.9636441}
    - {x: -0.54463536, y: -0.0034080788, z: -0.007092346, w: 0.8386361}
    - {x: -0.52731913, y: -0.014372024, z: 0.018411329, w: 0.8493463}
    - {x: 0, y: -0, z: -0, w: 1}
    - {x: 0.018260214, y: -0.09219058, z: 0.14014365, w: 0.9856608}
    - {x: -0.29132164, y: 0.051003203, z: -0.078889646, w: 0.9520015}
    - {x: -0.46200997, y: -0.014813609, z: 0.0033586933, w: 0.88674474}
    - {x: -0.5523376, y: 0.00021245278, z: -0.021180656, w: 0.83335143}
    - {x: 0, y: -0, z: -0, w: 1}
    - {x: -0.030124774, y: -0.18462116, z: 0.2976442, w: 0.93617064}
    - {x: -0.07723739, y: 0.13059828, z: -0.19219616, w: 0.9695562}
    - {x: -0.41938978, y: -0.012292841, z: 0.020684827, w: 0.90748733}
    - {x: -0.38602695, y: 0.00855533, z: 0.0055613145, w: 0.9224311}
    - {x: 0, y: -0, z: -0, w: 1}
    - {x: 0.20274544, y: 0.59426665, z: 0.2494411, w: 0.73723847}
    - {x: 0.6235274, y: -0.66380864, z: -0.29373443, w: -0.29033053}
    - {x: 0.6780625, y: -0.6592852, z: -0.26568344, w: -0.18704711}
    - {x: 0.7367927, y: -0.6347571, z: -0.14393571, w: -0.18303718}
    - {x: 0.7584072, y: -0.6393418, z: -0.12667806, w: -0.0036594148}
  rightHand:
    inputSource: 2
    thumbFingerMovementType: 0
    indexFingerMovementType: 0
    middleFingerMovementType: 0
    ringFingerMovementType: 0
    pinkyFingerMovementType: 0
    ignoreRootPoseData: 1
    ignoreWristPoseData: 1
    position: {x: 0.027, y: -0.015425079, z: -0.11952775}
    rotation: {x: 0.44067848, y: 0, z: 0, w: 0.8976651}
    bonePositions:
    - {x: 0, y: 0.0028, z: 0.001225}
    - {x: 6.557457e-12, y: 0.0013175277, z: 4.7293723e-12}
    - {x: 0.00018424497, y: 0.00025110884, z: -0.00009327747}
    - {x: -8.381903e-11, y: 0.0003981605, z: 2.561137e-11}
    - {x: -9.313225e-11, y: 0.0003507384, z: -1.862645e-10}
    - {x: -0, y: 0.00036220855, z: 0}
    - {x: -1.2805685e-11, y: 0.00021575268, z: 6.984919e-12}
    - {x: 3.7252902e-11, y: 0.00067892484, z: 4.6566128e-12}
    - {x: 3.206878e-11, y: 0.00047745774, z: -9.677023e-12}
    - {x: -0, y: 0.00030565244, z: 1.3038516e-10}
    - {x: -0, y: 0.00022939466, z: 0}
    - {x: 0, y: 0.00021575268, z: 0}
    - {x: -9.3132255e-12, y: 0.0006706817, z: -8.1490726e-12}
    - {x: -2.561137e-11, y: 0.00052285154, z: -1.2805686e-10}
    - {x: 2.7939677e-11, y: 0.00034862317, z: 8.614734e-11}
    - {x: -0, y: 0.00024068115, z: 0}
    - {x: 0, y: 0.00021575268, z: 0}
    - {x: -3.1723176e-11, y: 0.0006529831, z: -1.7462297e-11}
    - {x: -2.7939677e-11, y: 0.00051837903, z: -5.122274e-11}
    - {x: -4.6566126e-11, y: 0.0002651808, z: -2.7939677e-11}
    - {x: -0, y: 0.0002389707, z: 0}
    - {x: -1.2805685e-11, y: 0.00021575268, z: 6.984919e-12}
    - {x: 7.4505804e-11, y: 0.0006685467, z: 2.3283063e-11}
    - {x: -3.7252902e-11, y: 0.00040428463, z: 3.7252902e-11}
    - {x: -5.5879353e-11, y: 0.00023437719, z: 8.381903e-11}
    - {x: -0, y: 0.00021018262, z: 0}
    - {x: -0.0060591106, y: 0.05628522, z: 0.060063843}
    - {x: -0.04041555, y: -0.043017667, z: 0.019344581}
    - {x: -0.03935372, y: -0.07567404, z: 0.047048334}
    - {x: -0.038340144, y: -0.09098663, z: 0.08257892}
    - {x: -0.031805996, y: -0.08721431, z: 0.12101539}
    boneRotations:
    - {x: 0.44279402, y: -0.17005871, z: 0.84015906, w: -0.26295683}
    - {x: -0.049506538, y: -0.10747276, z: 0.07969613, w: 0.9897713}
    - {x: -0.33459112, y: 0.39757225, z: -0.30360886, w: 0.7986281}
    - {x: 0.082900904, y: -0.031975314, z: 0.10876721, w: 0.9900883}
    - {x: 0.035276268, y: -0.013062671, z: 0.3210406, w: 0.9463181}
    - {x: 0, y: -0, z: -0, w: 1}
    - {x: 0.015559349, y: -0.038889375, z: -0.1770057, w: 0.98331815}
    - {x: -0.1352861, y: 0.005699418, z: 0.15248425, w: 0.9789861}
    - {x: -0.44060907, y: -0.02518961, z: 0.01809528, w: 0.8971632}
    - {x: -0.469957, y: -0.011057445, z: 0.018292354, w: 0.8824305}
    - {x: 0, y: -0, z: -0, w: 1}
    - {x: 0.042028602, y: -0.0049513956, z: -0.019528488, w: 0.9989133}
    - {x: -0.26249397, y: -0.040271822, z: 0.02941536, w: 0.9636441}
    - {x: -0.54463536, y: -0.0034080788, z: -0.007092346, w: 0.8386361}
    - {x: -0.52731913, y: -0.014372024, z: 0.018411329, w: 0.8493463}
    - {x: 0, y: -0, z: -0, w: 1}
    - {x: 0.018260214, y: -0.09219058, z: 0.14014365, w: 0.9856608}
    - {x: -0.29132164, y: 0.051003203, z: -0.078889646, w: 0.9520015}
    - {x: -0.46200997, y: -0.014813609, z: 0.0033586933, w: 0.88674474}
    - {x: -0.5523376, y: 0.00021245278, z: -0.021180656, w: 0.83335143}
    - {x: 0, y: -0, z: -0, w: 1}
    - {x: -0.030124774, y: -0.18462116, z: 0.2976442, w: 0.93617064}
    - {x: -0.0772374, y: 0.13059828, z: -0.19219619, w: 0.9695562}
    - {x: -0.41938978, y: -0.012292841, z: 0.020684827, w: 0.90748733}
    - {x: -0.38602695, y: 0.00855533, z: 0.0055613145, w: 0.9224311}
    - {x: 0, y: -0, z: -0, w: 1}
    - {x: 0.20274544, y: 0.59426665, z: 0.2494411, w: 0.73723847}
    - {x: 0.6235274, y: -0.66380864, z: -0.29373443, w: -0.29033053}
    - {x: 0.6780625, y: -0.6592852, z: -0.26568344, w: -0.18704711}
    - {x: 0.7367927, y: -0.6347571, z: -0.14393571, w: -0.18303718}
    - {x: 0.7584072, y: -0.6393418, z: -0.12667806, w: -0.0036594148}
  applyToSkeletonRoot: 1
