name,time,chicken
,02.05.2021 10:43:56,0.0
,02.05.2021 10:44:08,0.0
,02.05.2021 10:44:47,0.0
,02.05.2021 10:52:17,0.0
,02.05.2021 10:53:42,0.0
,02.05.2021 10:56:43,0.0
,02.05.2021 10:57:25,0.0
,02.05.2021 10:57:58,0.0
,02.05.2021 10:58:19,0.0
