%YAML 1.1
%TAG !u! tag:unity3d.com,2011:
--- !u!114 &11400000
MonoBehaviour:
  m_ObjectHideFlags: 0
  m_CorrespondingSourceObject: {fileID: 0}
  m_PrefabInstance: {fileID: 0}
  m_PrefabAsset: {fileID: 0}
  m_GameObject: {fileID: 0}
  m_Enabled: 1
  m_EditorHideFlags: 0
  m_Script: {fileID: 11500000, guid: c3fb48c395a19304088df10d18d1a02c, type: 3}
  m_Name: Soap
  m_EditorClassIdentifier: 
  message: "Umyj se m\xFDdlem ve spr\u0161e v p\u0159\xEDzem\xED."
  type: 17
  countToBeDone: 1
  done: 0
