#
# Wavefront material file
# Converted by Meshlab Group
#

newmtl material_0
Ka 0.200000 0.200000 0.200000
Kd 0.600000 0.600000 0.600000
Ks 1.000000 1.000000 1.000000
Tr 1.000000
illum 2
Ns 0.000000
map_Kd texture_1001.png

newmtl material_1
Ka 0.200000 0.200000 0.200000
Kd 0.600000 0.600000 0.600000
Ks 1.000000 1.000000 1.000000
Tr 1.000000
illum 2
Ns 0.000000
map_Kd texture_1002.png

newmtl material_2
Ka 0.200000 0.200000 0.200000
Kd 0.600000 0.600000 0.600000
Ks 1.000000 1.000000 1.000000
Tr 1.000000
illum 2
Ns 0.000000
map_Kd texture_1003.png

newmtl material_3
Ka 0.200000 0.200000 0.200000
Kd 0.600000 0.600000 0.600000
Ks 1.000000 1.000000 1.000000
Tr 1.000000
illum 2
Ns 0.000000
map_Kd texture_1004.png

newmtl material_4
Ka 0.200000 0.200000 0.200000
Kd 0.600000 0.600000 0.600000
Ks 1.000000 1.000000 1.000000
Tr 1.000000
illum 2
Ns 0.000000
map_Kd texture_1005.png

newmtl material_5
Ka 0.200000 0.200000 0.200000
Kd 0.600000 0.600000 0.600000
Ks 1.000000 1.000000 1.000000
Tr 1.000000
illum 2
Ns 0.000000
map_Kd texture_1006.png

newmtl material_6
Ka 0.200000 0.200000 0.200000
Kd 0.600000 0.600000 0.600000
Ks 1.000000 1.000000 1.000000
Tr 1.000000
illum 2
Ns 0.000000
map_Kd texture_1007.png

newmtl material_7
Ka 0.200000 0.200000 0.200000
Kd 0.600000 0.600000 0.600000
Ks 1.000000 1.000000 1.000000
Tr 1.000000
illum 2
Ns 0.000000
map_Kd texture_1008.png

newmtl material_8
Ka 0.200000 0.200000 0.200000
Kd 0.600000 0.600000 0.600000
Ks 1.000000 1.000000 1.000000
Tr 1.000000
illum 2
Ns 0.000000
map_Kd texture_1009.png

newmtl material_9
Ka 0.200000 0.200000 0.200000
Kd 0.600000 0.600000 0.600000
Ks 1.000000 1.000000 1.000000
Tr 1.000000
illum 2
Ns 0.000000
map_Kd texture_1010.png

newmtl material_10
Ka 0.200000 0.200000 0.200000
Kd 0.600000 0.600000 0.600000
Ks 1.000000 1.000000 1.000000
Tr 1.000000
illum 2
Ns 0.000000
map_Kd texture_1011.png

newmtl material_11
Ka 0.200000 0.200000 0.200000
Kd 0.600000 0.600000 0.600000
Ks 1.000000 1.000000 1.000000
Tr 1.000000
illum 2
Ns 0.000000
map_Kd texture_1012.png

newmtl material_12
Ka 0.200000 0.200000 0.200000
Kd 0.600000 0.600000 0.600000
Ks 1.000000 1.000000 1.000000
Tr 1.000000
illum 2
Ns 0.000000
map_Kd texture_1013.png

newmtl material_13
Ka 0.200000 0.200000 0.200000
Kd 0.600000 0.600000 0.600000
Ks 1.000000 1.000000 1.000000
Tr 1.000000
illum 2
Ns 0.000000
map_Kd texture_1014.png

